%YAML 1.1
%TAG !u! tag:unity3d.com,2011:
--- !u!1045 &1
EditorBuildSettings:
  m_ObjectHideFlags: 0
  serializedVersion: 2
  m_Scenes:
  - enabled: 1
    path: Assets/Zerobit/Scenes/Scene.unity
    guid: 00db8c9f0c957e64281ec7271aeeb6d1
